<svg width="20" height="21" viewBox="0 0 20 21" fill="none" xmlns="http://www.w3.org/2000/svg">
<path d="M8.836 11.172H0.124V9.148H8.836V0.391999H10.992V9.148H19.748V11.172H10.992V20.016H8.836V11.172Z" fill="#97C33F"/>
</svg>
