<svg width="146" height="73" viewBox="0 0 146 73" fill="none" xmlns="http://www.w3.org/2000/svg">
<path d="M5.62687 65.2905C5.14888 65.2693 4.69878 65.0592 4.37532 64.7062C4.05186 64.3532 3.88145 63.8861 3.90149 63.4075V6.48133C3.88145 6.00267 4.05186 5.53561 4.37532 5.1826C4.69878 4.82959 5.14888 4.61947 5.62687 4.59834C6.10486 4.61947 6.55496 4.82959 6.87842 5.1826C7.20189 5.53561 7.37229 6.00267 7.35226 6.48133V63.4075C7.37229 63.8861 7.20189 64.3532 6.87842 64.7062C6.55496 65.0592 6.10486 65.2693 5.62687 65.2905Z" fill="#97C33F"/>
<path d="M99.5548 45.0548H98.0216C97.6248 45.0687 97.2309 44.9833 96.8754 44.8063C96.52 44.6293 96.2142 44.3663 95.9858 44.0412L95.9045 43.9413L82.0497 26.0696V42.6317C82.0497 44.1485 81.115 45.0548 79.5559 45.0548H77.4758C75.913 45.0548 74.9819 44.1485 74.9819 42.6317V15.2563C74.9819 13.7395 75.9167 12.8332 77.4758 12.8332H79.0128C79.4095 12.8193 79.8034 12.9047 80.1589 13.0817C80.5144 13.2587 80.8201 13.5217 81.0485 13.8468L81.1298 13.9467L94.9846 31.8147V15.2563C94.9846 13.7395 95.9193 12.8332 97.4785 12.8332H99.5548C101.118 12.8332 102.049 13.7395 102.049 15.2563V42.6317C102.052 44.1485 101.118 45.0548 99.5548 45.0548Z" fill="black"/>
<path d="M119.04 45.0548H116.964C115.401 45.0548 114.47 44.1485 114.47 42.6317V19.3256H108.189C106.626 19.3256 105.695 18.4192 105.695 16.9025V15.2563C105.695 13.7395 106.63 12.8332 108.189 12.8332H127.771C129.333 12.8332 130.264 13.7395 130.264 15.2563V16.9136C130.264 18.4303 129.33 19.3367 127.771 19.3367H121.553V42.6428C121.553 44.1485 120.603 45.0548 119.04 45.0548Z" fill="black"/>
<path d="M71.4871 14.3388V16.9284C71.4871 17.1324 71.4469 17.3345 71.3689 17.523C71.291 17.7115 71.1767 17.8828 71.0326 18.0271C70.8885 18.1713 70.7174 18.2858 70.5291 18.3639C70.3409 18.4419 70.1391 18.4821 69.9353 18.4821H54.3736V25.2927H68.6053C68.7959 25.2927 68.9847 25.3303 69.1609 25.4034C69.3371 25.4764 69.4971 25.5835 69.632 25.7185C69.7668 25.8535 69.8737 26.0138 69.9467 26.1902C70.0197 26.3666 70.0572 26.5556 70.0572 26.7466V29.436C70.0572 29.8481 69.8938 30.2433 69.6027 30.5347C69.3117 30.8261 68.917 30.9898 68.5055 30.9898H54.3736V39.4133H70.6299C71.0415 39.4133 71.4361 39.577 71.7271 39.8684C72.0182 40.1597 72.1816 40.5549 72.1816 40.967V43.5566C72.1816 43.9687 72.0182 44.3639 71.7271 44.6552C71.4361 44.9466 71.0415 45.1103 70.6299 45.1103H49.2012C48.7896 45.1103 48.3949 44.9466 48.1039 44.6552C47.8129 44.3639 47.6494 43.9687 47.6494 43.5566V14.3314C47.6494 13.9193 47.8129 13.5241 48.1039 13.2328C48.3949 12.9414 48.7896 12.7777 49.2012 12.7777H69.9205C70.1262 12.7757 70.3302 12.8147 70.5206 12.8924C70.7111 12.97 70.8842 13.0848 71.03 13.2301C71.1757 13.3754 71.2912 13.5482 71.3697 13.7385C71.4481 13.9289 71.488 14.1329 71.4871 14.3388Z" fill="#1D1D1B"/>
<path d="M17.6787 43.1829V14.6977C17.6797 14.192 17.8802 13.7072 18.2366 13.3489C18.593 12.9907 19.0764 12.788 19.5814 12.7851H31.903C36.7626 12.7851 40.3168 14.5817 42.5656 18.1751C44.238 20.8115 45.0743 24.1508 45.0743 28.193C45.0743 32.5534 44.1703 36.2293 42.3624 39.2209C40.02 43.1398 36.4486 45.0992 31.648 45.0992H19.5814C19.0758 45.0963 18.5918 44.8931 18.2353 44.5341C17.8788 44.175 17.6787 43.6893 17.6787 43.1829ZM24.2551 18.349V39.539H30.8315C33.3488 39.539 35.2441 38.3984 36.5175 36.1171C37.6185 34.1441 38.1678 31.6668 38.1653 28.685C38.1653 24.4924 37.2897 21.5835 35.5385 19.9582C34.3808 18.8854 32.7798 18.349 30.7355 18.349H24.2551Z" fill="#1D1D1B"/>
<path d="M108.699 59.4528C108.484 59.4052 108.26 59.4246 108.056 59.5083C106.988 59.9005 105.91 60.2482 104.834 60.6182C102.728 61.358 100.323 61.6466 98.1065 61.802C97.7852 61.8508 97.4567 61.8151 97.1533 61.6984C96.2814 61.2766 97.0351 60.2186 97.4452 59.7562L100.493 58.8202C102.16 58.2875 103.999 57.8954 105.481 56.9299C106.009 56.5858 106.634 56.0605 106.634 55.3687C106.634 54.0702 105.015 54.0517 104.095 54.2589C103.028 54.492 101.21 54.91 98.3984 57.1111C97.4563 57.851 96.7728 58.9608 95.62 59.3308C94.7814 59.586 93.9464 59.9116 93.1188 60.2038C92.221 60.522 91.3084 60.8216 90.3996 61.0991C88.6694 61.6283 86.9004 62.0204 85.1089 62.2718C84.9909 62.3069 84.8662 62.3131 84.7454 62.2899C84.6245 62.2668 84.511 62.2149 84.4143 62.1386C84.3559 62.0618 84.3201 61.9702 84.311 61.8741C84.3019 61.778 84.3197 61.6813 84.3626 61.5948C84.732 60.7143 85.87 60.0336 86.6015 59.512C87.7653 58.6797 89.0806 58.0027 89.7715 56.7153C89.8801 56.5398 89.9458 56.3411 89.9631 56.1354C89.9805 55.9296 89.949 55.7227 89.8712 55.5315C89.269 54.3551 87.3256 54.7583 86.3835 54.9618C83.5461 55.5796 80.9746 56.6931 78.3256 57.8547C77.2874 58.3097 76.2788 58.8461 75.2221 59.2494C76.2529 58.8572 77.6199 57.0926 77.6199 55.968C77.5897 55.7229 77.4848 55.4931 77.3196 55.3097C77.1543 55.1264 76.9367 54.9984 76.6962 54.9433C75.9573 54.7139 75.1704 54.8878 74.4204 55.0617C72.3772 55.5389 70.493 56.4822 68.557 57.2813C66.4733 58.1396 64.3673 58.9571 62.2171 59.6415C61.6592 59.8191 61.1087 59.9893 60.536 60.1594C59.0988 60.596 57.6579 61.0325 56.1948 61.3728C55.685 61.4912 52.1308 62.4235 52.1788 61.58C52.2342 60.3629 53.7675 59.3604 54.5988 58.6501C55.8691 57.652 57.2019 56.7364 58.589 55.9088C58.6966 55.8383 58.7727 55.7286 58.8009 55.6029C58.8292 55.4772 58.8075 55.3455 58.7404 55.2355C58.6794 55.1328 58.5833 55.0557 58.4699 55.0183C58.3565 54.9809 58.2335 54.9858 58.1234 55.0321C53.93 56.7745 49.7441 58.5058 45.3807 59.7932C41.7901 60.8947 38.0978 61.6309 34.3597 61.9906C34.3028 62.0012 34.2444 61.9994 34.1883 61.9854C34.1322 61.9714 34.0797 61.9454 34.0346 61.9092C34.004 61.8699 33.9847 61.8229 33.9788 61.7733C33.973 61.7237 33.9807 61.6735 34.0013 61.6281C34.1056 61.4427 34.2295 61.2691 34.3708 61.1102C35.5937 59.3641 37.1935 57.8843 38.6602 56.3417C38.9273 56.1614 39.2183 56.0195 39.5248 55.9199L40.5519 55.4057C41.8302 54.762 43.8955 53.6633 45.1332 52.9456C47.914 51.3327 50.6443 49.6384 53.3241 47.8627C55.1899 46.6271 57.0926 45.3804 58.903 44.0819C63.9743 40.462 68.8036 36.5137 73.36 32.2624C74.8181 30.8911 76.211 29.4533 77.5386 27.9489C78.1334 27.2945 78.6933 26.6091 79.216 25.8957C79.6667 25.2631 80.3244 24.4418 80.3244 23.6206C80.3442 23.2589 80.2699 22.8982 80.1086 22.5739C79.9473 22.2497 79.7047 21.9729 79.4044 21.7709C78.599 21.2974 77.5017 21.6044 76.6852 21.8893C74.4684 22.6661 72.4585 23.972 70.5521 25.3482C68.5377 26.7376 66.6059 28.2434 64.7663 29.8577L56.5717 37.4304L45.946 47.4409L37.4188 55.6203C36.9201 56.0975 35.941 56.2973 35.3055 56.5858C33.6762 57.3257 32.021 58.0101 30.3326 58.6205C29.7858 58.8178 29.2377 59.0126 28.6885 59.205C28.3314 59.287 27.9969 59.4475 27.7094 59.6748C27.4766 59.9116 27.2697 60.4961 27.7426 60.6145C27.9338 60.6423 28.1288 60.6141 28.3042 60.5331C29.6491 60.0558 30.9865 59.5564 32.3277 59.0533L35.372 57.777C34.4409 58.8073 33.621 59.9333 32.9262 61.1361C32.7721 61.3778 32.6609 61.6444 32.5974 61.924C32.3055 63.8514 36.6023 62.9488 37.4927 62.7971C42.9377 61.9039 48.2466 60.3189 53.2909 58.0804C52.3007 58.946 50.9042 60.078 50.749 61.4727C50.691 61.7965 50.759 62.1302 50.939 62.4054C51.119 62.6806 51.3974 62.8763 51.717 62.9525C52.1263 63.047 52.5493 63.0671 52.9658 63.0117C55.7847 62.7823 58.5077 61.9758 61.2084 61.162C63.9677 60.3057 66.6807 59.3068 69.3366 58.1692C70.445 57.7067 71.509 57.0889 72.6617 56.6894C73.6223 56.3491 74.8268 55.82 75.8613 55.9495C75.9511 55.9514 76.0391 55.9758 76.1171 56.0203C76.1952 56.0649 76.2609 56.1283 76.3083 56.2048C76.3455 56.3101 76.3455 56.425 76.3083 56.5303C76.2182 56.7969 76.0749 57.0423 75.8871 57.2517C74.9819 58.3615 73.796 59.1347 72.6543 59.9745C71.7898 60.6218 70.9142 61.2544 70.0459 61.8944C69.8206 62.0609 68.7972 62.601 68.7417 62.8526C68.7265 62.9234 68.7271 62.9968 68.7434 63.0674C68.7597 63.138 68.7915 63.2041 68.8363 63.261C68.8811 63.3179 68.9379 63.3642 69.0027 63.3966C69.0675 63.4289 69.1386 63.4465 69.211 63.4482C72.4376 61.9191 75.6642 60.3888 78.8908 58.8572C80.3348 58.1536 81.8147 57.5263 83.3244 56.978C84.1036 56.6997 84.8965 56.4614 85.7 56.264C86.5239 56.0642 87.5067 55.7609 88.3306 55.9606C88.381 55.9692 88.4288 55.9894 88.4701 56.0197C88.5114 56.0501 88.545 56.0896 88.5683 56.1352C88.5916 56.1809 88.604 56.2313 88.6044 56.2826C88.6048 56.3338 88.5933 56.3844 88.5707 56.4304C88.35 56.7436 88.0638 57.0049 87.7321 57.1962C87.269 57.5415 86.8096 57.8905 86.354 58.2431C85.0941 59.2198 83.0288 60.3703 83.0288 62.1941C83.0288 62.7453 83.3613 63.4001 84.987 63.4001C86.7197 63.4001 88.6335 62.8267 90.2924 62.3717C92.1677 61.8548 93.9977 61.1855 95.7641 60.3703C95.3688 61.088 95.306 62.0757 96.0708 62.5714C96.4573 62.7952 96.892 62.9221 97.338 62.9414C98.1871 63.0119 99.0415 62.9821 99.8836 62.8526C101.564 62.6577 103.228 62.3362 104.86 61.8907C105.81 61.6059 108.788 60.6219 109.213 60.1964C109.261 60.1548 109.298 60.1012 109.32 60.041C109.36 59.7673 108.91 59.5046 108.699 59.4528ZM99.274 58.1914C99.5829 57.724 99.9839 57.3249 100.453 57.0187C101.679 56.042 105.256 54.5623 105.256 55.5981C105.256 55.7128 105.126 55.7794 105.027 55.8348C103.211 56.8465 101.281 57.6376 99.2777 58.1914H99.274ZM41.3351 53.6411L47.2465 48.0587C51.3106 44.2151 55.3451 40.3307 59.4609 36.5351C60.8648 35.2404 62.291 33.9678 63.7245 32.7063C65.158 31.4448 66.5878 30.0723 68.1211 28.9181C68.9597 28.2152 69.828 27.5345 70.7073 26.8575C72.2812 25.5813 73.8957 24.268 75.7911 23.5059C76.53 23.21 79.2123 21.967 79.2123 23.6169C79.2123 24.1126 78.6581 25.3038 76.0423 28.1449C74.7529 29.5433 73.1457 30.6568 71.8304 32.0108C69.9567 33.9166 67.9557 35.6927 65.8415 37.3268C61.3156 40.8782 56.7084 44.4481 51.8685 47.563C50.1357 48.6728 48.366 49.7346 46.5815 50.763C45.7465 51.2439 44.9066 51.7162 44.0617 52.1799L42.6726 52.9197C42.3216 53.1121 41.5494 53.3452 41.3351 53.6411Z" fill="#98C93C"/>
<path d="M69.2482 63.7219H69.1891C69.0811 63.7241 68.9741 63.7016 68.8761 63.6561C68.7781 63.6106 68.6918 63.5433 68.6238 63.4593C68.5519 63.3679 68.5003 63.2623 68.4723 63.1494C68.4442 63.0365 68.4405 62.9189 68.4612 62.8045C68.5167 62.5492 68.8307 62.3125 69.5696 61.8759C69.6989 61.7983 69.8098 61.7317 69.8689 61.6873L70.7482 61.0436C71.3246 60.6218 71.9046 60.2001 72.4736 59.771L73.0056 59.4011C73.9863 58.7575 74.8782 57.9876 75.6583 57.1111C75.8216 56.9292 75.9471 56.7167 76.0278 56.4859C76.0433 56.4378 76.0433 56.3861 76.0278 56.338C76.0278 56.3047 75.9317 56.2603 75.7877 56.2418C74.9675 56.1271 73.9921 56.4822 73.1312 56.8004L72.7137 56.9521C72.0647 57.1957 71.4295 57.4748 70.811 57.7881C70.3492 58.0101 69.8874 58.2357 69.4181 58.4318C66.7622 59.5714 64.0492 60.5728 61.29 61.432C58.6262 62.2237 55.8737 63.0413 52.9956 63.2817C52.548 63.3399 52.0935 63.316 51.6544 63.2114C51.2766 63.1196 50.9472 62.8884 50.7322 62.564C50.5171 62.2396 50.4322 61.8459 50.4943 61.4616C50.6015 60.5035 51.2333 59.6859 51.9242 58.983C47.2939 60.9011 42.4594 62.2814 37.5152 63.0967L37.2935 63.1374C35.5385 63.4519 33.4215 63.7071 32.6161 62.9229C32.4871 62.7936 32.3919 62.6345 32.3391 62.4596C32.2862 62.2847 32.2773 62.0995 32.3132 61.9203C32.3703 61.6371 32.4779 61.3664 32.6309 61.1213L32.6715 61.0436C33.1802 60.1228 33.7779 59.2542 34.456 58.4503L32.4166 59.3049L30.8759 59.8672C30.0447 60.1705 29.2171 60.4739 28.3821 60.7735C28.1586 60.874 27.9102 60.9049 27.669 60.8623C27.5606 60.8404 27.4602 60.7891 27.3788 60.7141C27.2974 60.6391 27.2381 60.5433 27.2072 60.4369C27.1776 60.2651 27.1897 60.0888 27.2424 59.9227C27.2952 59.7566 27.387 59.6056 27.5102 59.4824C27.7681 59.2556 28.0776 59.0955 28.4116 59.0163L28.6038 58.9534L30.2479 58.3689C31.9585 57.7474 33.6247 57.0667 35.1986 56.3417C35.4092 56.2455 35.6568 56.1567 35.9154 56.0679C36.3934 55.9403 36.8425 55.7217 37.2381 55.4242L45.7652 47.2449L56.3909 37.2343L64.5893 29.658C66.3408 28.1145 68.1814 26.6754 70.1017 25.3482L70.4231 25.1188C72.2704 23.7797 74.3209 22.4257 76.6226 21.6229C77.5869 21.2863 78.6916 21.0125 79.5783 21.5267C79.92 21.7524 80.1967 22.0638 80.3808 22.4298C80.5649 22.7959 80.65 23.2039 80.6276 23.6132C80.6276 24.4271 80.0623 25.2039 79.6079 25.8328L79.449 26.0511C78.9214 26.7683 78.3566 27.4573 77.7569 28.1153C76.4084 29.6395 74.997 31.097 73.5635 32.4473C68.9967 36.7044 64.1576 40.6588 59.0769 44.2854C57.4143 45.4766 55.6631 46.6345 53.9673 47.7554L53.4907 48.0698C50.8195 49.8344 48.0596 51.5473 45.2849 53.1602C44.062 53.8705 41.9893 54.9729 40.6888 55.6277L39.6433 56.1493C39.562 56.19 39.4585 56.2307 39.3477 56.2714C39.1708 56.326 39.0037 56.4084 38.8526 56.5155C38.5053 56.8855 38.1506 57.2554 37.7923 57.6254C36.6272 58.752 35.5559 59.9719 34.589 61.2729C34.5447 61.3358 34.4893 61.4024 34.4376 61.4653C34.3609 61.547 34.2962 61.6391 34.2454 61.7391H34.3452C37.5595 61.4653 41.0472 60.7513 45.3108 59.4935C49.7074 58.1951 53.9377 56.4415 58.0277 54.7435C58.2003 54.6839 58.3885 54.6877 58.5586 54.7544C58.7286 54.8211 58.8694 54.9463 58.9557 55.1074C59.0419 55.2686 59.0681 55.4553 59.0293 55.634C58.9906 55.8127 58.8896 55.9718 58.7444 56.0827L57.8392 56.6635C56.7713 57.3059 55.7492 58.0216 54.7801 58.8055C54.6471 58.9201 54.4956 59.0422 54.333 59.1754C53.5572 59.7969 52.4857 60.6551 52.4525 61.5504C52.5005 61.5985 52.9254 61.8574 55.9808 61.1139L56.1434 61.0732C57.5954 60.7328 59.0511 60.2926 60.4587 59.8672C61.0498 59.6896 61.6003 59.5231 62.1471 59.3493C64.4821 58.6094 66.7506 57.703 68.4649 56.9965C68.9231 56.8078 69.3812 56.6265 69.8393 56.412C71.2957 55.7248 72.8103 55.1689 74.3652 54.7509C75.0746 54.5845 75.9539 54.381 76.7815 54.6362C77.0767 54.7069 77.3423 54.8683 77.5411 55.0979C77.7399 55.3275 77.8619 55.6137 77.8899 55.9162C77.8899 56.6154 77.4539 57.4737 76.8813 58.1803L77.0401 58.1063C77.4355 57.9213 77.8271 57.7363 78.2261 57.5588C80.7791 56.4489 83.3986 55.2873 86.3358 54.651C87.2557 54.4513 89.4097 53.9815 90.1154 55.3576C90.2149 55.5867 90.2578 55.8365 90.2405 56.0857C90.2231 56.3349 90.146 56.5763 90.0156 56.7893C89.4282 57.8991 88.4269 58.5539 87.4589 59.2013C87.2262 59.3567 86.9934 59.5157 86.7643 59.6785L86.4392 59.9042C85.7594 60.374 84.917 60.9585 84.6141 61.6503C84.5918 61.6904 84.58 61.7356 84.58 61.7816C84.58 61.8276 84.5918 61.8728 84.6141 61.9129C84.6917 62.0017 84.9133 61.9832 85.0722 61.9573C86.8499 61.7085 88.6054 61.3201 90.3223 60.7957C91.2533 60.5109 92.1696 60.2112 93.0304 59.9042L93.7361 59.6489C94.3272 59.4344 94.9368 59.2124 95.5427 59.0274C96.2373 58.8166 96.7583 58.2875 97.3088 57.7326C97.5992 57.4258 97.909 57.1379 98.2361 56.8707C101.133 54.6029 103.039 54.1886 104.04 53.9667C104.798 53.8039 105.821 53.7965 106.42 54.2774C106.576 54.406 106.701 54.569 106.784 54.7538C106.868 54.9386 106.907 55.1402 106.9 55.3428C106.9 55.9828 106.482 56.5673 105.625 57.1259C104.439 57.8991 103.039 58.3097 101.698 58.7056C101.329 58.8166 100.959 58.9275 100.59 59.0459L97.6117 59.9967C97.2053 60.4739 96.9873 60.9326 97.0391 61.199C97.053 61.2612 97.0828 61.3188 97.1255 61.3661C97.1682 61.4134 97.2225 61.4489 97.2829 61.469C97.544 61.5642 97.8251 61.5909 98.0994 61.5467C100.05 61.4098 102.57 61.1509 104.75 60.3777L106.061 59.9227C106.7 59.7044 107.336 59.4824 107.971 59.2531C108.225 59.152 108.503 59.13 108.769 59.1902C109.055 59.2695 109.302 59.4479 109.468 59.6933C109.505 59.7555 109.529 59.8247 109.539 59.8966C109.548 59.9685 109.543 60.0416 109.523 60.1113C109.489 60.2136 109.429 60.3053 109.35 60.3777C108.788 60.9437 104.916 62.1275 104.886 62.1423C103.368 62.5645 101.819 62.87 100.253 63.056L99.8839 63.1115C99.0209 63.2427 98.1455 63.2725 97.2755 63.2003C96.787 63.1818 96.3103 63.0446 95.8863 62.8008C95.5853 62.5951 95.3593 62.2968 95.2427 61.951C95.126 61.6053 95.125 61.2309 95.2398 60.8845C93.6448 61.5855 92.0013 62.1702 90.3223 62.6343L89.9232 62.7453C88.3567 63.1818 86.5981 63.6738 84.9503 63.6738C83.0143 63.6738 82.7335 62.7527 82.7335 62.1941C82.7335 60.5331 84.2779 59.4159 85.5156 58.5206C85.7483 58.3541 85.97 58.1914 86.1732 58.0323C86.6313 57.6771 87.0919 57.3269 87.555 56.9817L87.7249 56.8596C87.9598 56.7213 88.1616 56.5331 88.3161 56.3084C88.3161 56.2418 88.2828 56.227 88.2496 56.2159C87.5919 56.0531 86.7717 56.2603 86.055 56.4415L85.7446 56.5192C84.9498 56.7144 84.1656 56.9503 83.3949 57.2258C81.8996 57.7658 80.4333 58.3832 79.002 59.0755C75.7778 60.6095 72.5512 62.1398 69.3221 63.6665L69.2482 63.7219ZM75.4625 55.6647C75.5998 55.6649 75.7368 55.6748 75.8726 55.6943C76.0088 55.6957 76.142 55.7348 76.2574 55.8073C76.3728 55.8798 76.466 55.9828 76.5266 56.1049C76.5862 56.2686 76.5862 56.448 76.5266 56.6117C76.4274 56.9134 76.2678 57.1916 76.0574 57.4293C75.2477 58.3415 74.3224 59.1437 73.3049 59.8154L72.7765 60.1853C72.2039 60.6145 71.6275 61.0362 71.0475 61.4616L70.1977 62.1164C70.1349 62.1645 70.0093 62.2385 69.8615 62.331C69.5461 62.5013 69.2522 62.7087 68.9859 62.9488C68.9923 63.0127 69.0152 63.0739 69.0524 63.1263C69.0775 63.1599 69.1145 63.1824 69.1558 63.1892C72.3578 61.67 75.5598 60.1496 78.7618 58.6279C80.2058 57.9209 81.6857 57.2899 83.1954 56.7375C83.9829 56.4559 84.7845 56.2151 85.5968 56.0161L85.9035 55.9384C86.6831 55.7424 87.5661 55.5241 88.3493 55.7128C88.4413 55.7335 88.5274 55.7749 88.601 55.8338C88.6746 55.8928 88.7339 55.9678 88.7742 56.0531C88.8125 56.1321 88.8323 56.2187 88.8323 56.3065C88.8323 56.3943 88.8125 56.4809 88.7742 56.5599C88.5845 56.8637 88.3248 57.1174 88.0168 57.2998L87.858 57.4145C87.3949 57.7573 86.9368 58.105 86.4836 58.4577C86.2767 58.6168 86.0476 58.7833 85.8111 58.9534C84.6104 59.8228 83.2471 60.8031 83.2471 62.1978C83.2471 62.823 83.816 63.1374 84.9392 63.1374C86.4983 63.1374 88.2348 62.6565 89.7718 62.2274L90.1745 62.1164C92.0356 61.6027 93.852 60.9383 95.6056 60.1298L96.3445 59.7895L95.9529 60.4998C95.6166 61.1065 95.5427 61.9425 96.1708 62.3495C96.5233 62.5451 96.9171 62.6541 97.3199 62.6676C98.1479 62.7368 98.9812 62.7083 99.8026 62.5825L100.172 62.527C101.711 62.3444 103.234 62.0451 104.728 61.6318C106.032 61.2397 108.636 60.337 108.965 60.0041C108.991 59.9042 108.784 59.7488 108.629 59.7081C108.465 59.6749 108.295 59.6917 108.141 59.7562C107.506 59.9893 106.863 60.2112 106.224 60.4295L104.927 60.8845C102.681 61.6799 100.124 61.9425 98.129 62.0831C97.7619 62.1381 97.3867 62.0934 97.0428 61.9536C96.909 61.8969 96.7908 61.8089 96.6982 61.6968C96.6057 61.5848 96.5413 61.4521 96.5107 61.3099C96.3851 60.6958 96.9208 59.9745 97.2497 59.5971L97.2977 59.5416L100.416 58.5428C100.785 58.4244 101.155 58.3134 101.55 58.1988C102.862 57.8288 104.218 57.4145 105.337 56.682C106.032 56.2307 106.368 55.7905 106.368 55.3428C106.375 55.2195 106.353 55.0962 106.304 54.983C106.255 54.8698 106.179 54.77 106.083 54.6917C105.659 54.3514 104.809 54.344 104.151 54.4846C103.176 54.6991 101.362 55.095 98.5612 57.2887C98.2526 57.5426 97.9601 57.8157 97.6856 58.1063C97.113 58.6871 96.5218 59.2864 95.6979 59.5379C95.1068 59.7192 94.5046 59.9375 93.9208 60.152L93.2114 60.4073C92.3395 60.718 91.4196 61.0177 90.4811 61.3062C88.7377 61.8389 86.9551 62.2335 85.1498 62.4863C84.9891 62.528 84.8208 62.5299 84.6592 62.4918C84.4977 62.4538 84.3478 62.377 84.2225 62.2681C84.1294 62.1534 84.0709 62.0145 84.0539 61.8678C84.0369 61.721 84.062 61.5724 84.1264 61.4394C84.4959 60.6108 85.401 59.9597 86.1363 59.4676L86.454 59.2457C86.6868 59.0792 86.9232 58.9201 87.1597 58.7611C88.1166 58.1211 89.007 57.5144 89.5427 56.5414C89.6309 56.4032 89.6855 56.2462 89.7021 56.083C89.7188 55.9199 89.6971 55.755 89.6388 55.6018C89.1215 54.5882 87.2446 54.9988 86.4429 55.1727C83.5759 55.7979 80.9601 56.941 78.433 58.0471C78.0414 58.2173 77.6534 58.417 77.2618 58.5872C76.6337 58.8831 75.9835 59.1939 75.3221 59.4454L75.1337 58.9497C76.0315 58.6057 77.3505 56.9484 77.3505 55.9162C77.3505 55.5463 76.981 55.2577 76.6116 55.1468C75.9244 54.9322 75.1559 55.1098 74.4761 55.2725C72.9536 55.6782 71.47 56.218 70.0425 56.8855C69.5807 57.0852 69.1226 57.2813 68.6607 57.4737C66.9354 58.184 64.6521 59.094 62.3023 59.8413C61.7518 60.0152 61.1939 60.1816 60.6471 60.3518C59.1915 60.792 57.7284 61.236 56.2579 61.58L56.0991 61.617C53.7604 62.1867 52.5264 62.2866 52.1015 61.9351C52.039 61.8848 51.9893 61.8203 51.9565 61.747C51.9237 61.6737 51.9088 61.5936 51.9131 61.5134C51.9648 60.3703 53.136 59.4307 53.9894 58.7463C54.1446 58.6205 54.2924 58.5021 54.4254 58.3763C55.4128 57.5759 56.4548 56.8453 57.5437 56.19L58.4451 55.6129C58.4894 55.578 58.52 55.5287 58.5317 55.4736C58.5433 55.4184 58.5352 55.3609 58.5088 55.3111C58.4824 55.2613 58.4394 55.2224 58.3872 55.2011C58.3351 55.1799 58.2771 55.1777 58.2235 55.1949C54.1188 56.9003 49.8773 58.6612 45.4549 59.9671C41.1544 61.236 37.6371 61.9573 34.371 62.2348C34.2744 62.2491 34.1758 62.2416 34.0825 62.2128C33.9891 62.184 33.9034 62.1346 33.8316 62.0683C33.767 61.9923 33.7247 61.8998 33.7097 61.8011C33.6947 61.7024 33.7075 61.6015 33.7467 61.5097C33.8174 61.3563 33.9122 61.2152 34.0275 61.0917C34.0718 61.0399 34.1161 60.9881 34.1531 60.9363C35.1367 59.6162 36.2265 58.3789 37.4117 57.2369C37.7812 56.867 38.1174 56.5155 38.4647 56.153C38.6659 55.9837 38.8998 55.8577 39.1519 55.7831C39.2442 55.7461 39.3329 55.7128 39.3994 55.6795L40.4228 55.169C41.7344 54.5068 43.796 53.4117 45.0078 52.7052C47.7751 51.0996 50.5276 49.3757 53.1877 47.6333L53.6643 47.3189C55.3564 46.209 57.104 45.0437 58.7592 43.8599C63.8205 40.2456 68.6411 36.3048 73.1903 32.0626C74.6312 30.7049 76.0241 29.2769 77.3616 27.7454C77.943 27.0997 78.4905 26.4243 79.002 25.7218L79.1645 25.4999C79.5746 24.9413 80.0808 24.2421 80.0808 23.6021C80.1015 23.2854 80.0395 22.9687 79.9009 22.6833C79.7622 22.3979 79.5518 22.1536 79.2901 21.9744C78.6066 21.5711 77.6424 21.819 76.7926 22.1149C74.5537 22.8955 72.5549 24.2199 70.7297 25.5369L70.4083 25.7699C68.5052 27.0849 66.6806 28.5104 64.944 30.039L56.7493 37.6302L46.1273 47.637L37.6038 55.8126C37.1552 56.166 36.64 56.4252 36.089 56.5747C35.8489 56.6598 35.6161 56.7412 35.4203 56.83C33.8316 57.5699 32.1506 58.2505 30.4252 58.8757C29.8784 59.0755 29.3291 59.2716 28.7774 59.4639L28.5705 59.5342C28.319 59.5911 28.0839 59.705 27.8833 59.8672C27.8269 59.924 27.7825 59.9916 27.7527 60.066C27.7229 60.1403 27.7082 60.2199 27.7097 60.3C27.7097 60.3 27.7097 60.337 27.7909 60.3555C27.9317 60.3669 28.0731 60.3414 28.201 60.2815C29.0323 59.9856 29.8599 59.6822 30.6912 59.3789L32.2208 58.8203L36.2849 57.1222L35.5755 57.9657C34.6564 58.9873 33.8478 60.1033 33.1629 61.2951L33.1186 61.3728C32.9976 61.5637 32.9101 61.7739 32.86 61.9943C32.8368 62.0895 32.8382 62.189 32.864 62.2835C32.8899 62.378 32.9393 62.4644 33.0077 62.5344C33.7208 63.2336 36.3551 62.7601 37.2196 62.6047L37.445 62.564C42.8744 61.6708 48.1674 60.0857 53.1951 57.8473L54.8207 57.1074L53.2949 58.4392C52.3453 59.2642 51.1594 60.2889 51.0264 61.5023C50.9789 61.7617 51.0336 62.0295 51.1789 62.2495C51.3242 62.4695 51.5489 62.6246 51.8059 62.6824C52.1841 62.7675 52.5744 62.785 52.9586 62.7342C55.7813 62.5048 58.5006 61.691 61.1459 60.9067C63.8924 60.053 66.5931 59.0577 69.2371 57.925C69.6989 57.7326 70.1497 57.5144 70.6041 57.2961C71.2406 56.9741 71.8943 56.6876 72.5623 56.4378L72.9724 56.2899C73.7611 55.9419 74.6031 55.7305 75.4625 55.6647ZM98.7386 58.6242L99.0268 58.0804C99.3052 57.638 99.6742 57.2597 100.109 56.9706L100.276 56.8411C101.336 55.9976 104.277 54.6621 105.186 55.1024C105.286 55.143 105.371 55.2132 105.43 55.3036C105.489 55.3941 105.518 55.5004 105.515 55.6084C105.512 55.7163 105.476 55.8207 105.412 55.9075C105.347 55.9942 105.258 56.0593 105.156 56.0938C103.32 57.1073 101.371 57.8984 99.3482 58.4503L98.7386 58.6242ZM104.68 55.55C103.771 55.55 101.624 56.4304 100.615 57.2369L100.442 57.3701C100.312 57.47 100.168 57.581 100.032 57.703C101.722 57.1749 103.354 56.4745 104.901 55.6129L104.946 55.587C104.864 55.5555 104.778 55.538 104.691 55.5352L104.68 55.55ZM41.5017 53.8446L41.1063 53.4746C41.1583 53.4075 41.2192 53.3478 41.2874 53.2971L47.0473 47.859C48.333 46.6456 49.6163 45.4285 50.897 44.2077C53.6274 41.6181 56.439 38.9323 59.2617 36.3354C60.4735 35.2256 61.7888 34.0344 63.5289 32.5028C63.8984 32.1699 64.2679 31.8332 64.6373 31.4929C65.6903 30.5421 66.7802 29.5581 67.9255 28.6998C68.6644 28.082 69.4403 27.4679 70.1977 26.876L70.4896 26.6467C72.0635 25.3667 73.6965 24.0571 75.6399 23.258L75.8172 23.1841C77.066 22.6661 78.3148 22.2481 79.002 22.7031C79.1454 22.805 79.2599 22.9425 79.3344 23.102C79.4089 23.2615 79.4407 23.4376 79.4268 23.6132C79.4268 24.4049 78.3185 25.9882 76.183 28.3225C75.4748 29.0608 74.7235 29.7563 73.933 30.4053C73.2642 30.975 72.577 31.5632 71.9674 32.1921C70.0855 34.1058 68.0759 35.8893 65.9526 37.5303C61.109 41.3295 56.7161 44.7219 51.9574 47.7813C50.3761 48.7986 48.6323 49.8492 46.6556 50.9886C45.8182 51.4819 44.9771 51.9554 44.1322 52.4092L42.743 53.1491C42.6359 53.2083 42.4844 53.2712 42.3219 53.3378C42.0782 53.4299 41.8432 53.5438 41.6199 53.6781L41.5017 53.8446ZM78.263 23.0583C77.5648 23.0583 76.5007 23.5022 76.0463 23.6946L75.8652 23.7686C73.9958 24.5084 72.396 25.8217 70.848 27.0795L70.5524 27.3126C69.8135 27.9045 69.0228 28.5149 68.2839 29.1364C67.146 29.9909 66.0671 30.9639 65.0216 31.9072C64.6521 32.2476 64.2826 32.5879 63.891 32.9208C62.1545 34.4524 60.8393 35.6325 59.6348 36.746C56.8232 39.3356 54.0042 42.0213 51.2739 44.6146C49.9906 45.8329 48.7074 47.05 47.4241 48.2659L42.9536 52.4869L43.9105 51.9653C44.7529 51.5016 45.5916 51.0293 46.4266 50.5484C48.4032 49.4127 50.1212 48.3658 51.7025 47.3558C56.439 44.3113 60.8245 40.9263 65.657 37.1344C67.7617 35.4986 69.7528 33.7213 71.6164 31.8147C72.2408 31.1673 72.9428 30.5717 73.6189 29.9946C74.3974 29.3596 75.1376 28.679 75.8357 27.9563C78.6362 24.9191 78.9355 23.8869 78.9355 23.6058C78.9355 23.3246 78.7951 23.1693 78.747 23.1397C78.6034 23.0624 78.4403 23.029 78.2778 23.0435L78.263 23.0583Z" fill="#97C33F"/>
<path d="M63.0227 53.0455C61.9143 53.0455 61.2788 52.4425 61.2788 51.3919C61.2788 50.2821 61.9143 49.6458 63.0227 49.6458C64.131 49.6458 64.7665 50.2821 64.7665 51.3919C64.7628 52.4277 64.1126 53.0455 63.0227 53.0455Z" fill="#97C33D"/>
<path d="M138.777 67.9466C138.299 67.9255 137.849 67.7154 137.525 67.3624C137.202 67.0094 137.031 66.5423 137.051 66.0637V9.13749C137.032 8.89922 137.063 8.65958 137.141 8.43365C137.219 8.20772 137.342 8.0004 137.504 7.82475C137.666 7.6491 137.863 7.50892 138.081 7.41304C138.3 7.31717 138.536 7.26767 138.775 7.26767C139.014 7.26767 139.25 7.31717 139.469 7.41304C139.687 7.50892 139.884 7.6491 140.046 7.82475C140.207 8.0004 140.331 8.20772 140.409 8.43365C140.487 8.65958 140.518 8.89922 140.499 9.13749V66.0637C140.519 66.5417 140.349 67.0082 140.026 67.3611C139.703 67.714 139.254 67.9246 138.777 67.9466Z" fill="#97C33F"/>
</svg>
